{
  "info": {
    "_postman_id": "6f0d2f1c-fdbe-497e-ac21-b1180bf2b209",
    "name": "spring-boot-spring-security-jwt-authentication",
    "description": "spring-boot-spring-security-jwt-authentication",
    "schema": "https://schema.getpostman.com/json/collection/v2.1.0/collection.json"
  },
  "item": [
    {
      "name": "Sign Up",
      "request": {
        "method": "POST",
        "header": [],
        "body": {
          "mode": "raw",
          "raw": "{\n\t\"username\" : \"kakashi\",\n\t\"email\": \"hatake_kakashi@konohagakure.co.jp\",\n\t\"password\": \"kakashi\",\n\t\"role\": [\"admin\"]\n}",
          "options": {
            "raw": {
              "language": "json"
            }
          }
        },
        "url": {
          "raw": "http://localhost:8080/api/auth/signup",
          "protocol": "http",
          "host": [
            "localhost"
          ],
          "port": "8080",
          "path": [
            "api",
            "auth",
            "signup"
          ]
        },
        "description": "Sign Up"
      },
      "response": []
    },
    {
      "name": "Access public resource",
      "request": {
        "method": "GET",
        "header": [],
        "url": {
          "raw": "http://localhost:8080/api/test/all",
          "protocol": "http",
          "host": [
            "localhost"
          ],
          "port": "8080",
          "path": [
            "api",
            "test",
            "all"
          ]
        },
        "description": "Access public resource"
      },
      "response": []
    },
    {
      "name": "Access protected resource",
      "request": {
        "method": "GET",
        "header": [],
        "url": {
          "raw": ""
        },
        "description": "Access protected resource"
      },
      "response": []
    },
    {
      "name": "Login an account",
      "request": {
        "method": "POST",
        "header": [],
        "body": {
          "mode": "raw",
          "raw": "{\n\t\"username\": \"kakashi\",\n\t\"password\": \"kakashi\"\n}",
          "options": {
            "raw": {
              "language": "json"
            }
          }
        },
        "url": {
          "raw": "http://localhost:8080/api/auth/signin",
          "protocol": "http",
          "host": [
            "localhost"
          ],
          "port": "8080",
          "path": [
            "api",
            "auth",
            "signin"
          ]
        },
        "description": "Login an account"
      },
      "response": []
    },
    {
      "name": "Access ROLE_USER resource",
      "request": {
        "method": "GET",
        "header": [
          {
            "key": "Authorization",
            "value": "Bearer eyJhbGciOiJIUzUxMiJ9.eyJzdWIiOiJuYXJ1dG8iLCJpYXQiOjE1ODc1Mjk4MjEsImV4cCI6MTU4NzYxNjIyMX0.SdVrBu5Uw2LbJ9kiWfLmiibxK3RXLpF7Oveeiz_j-kwzMHpEaGgetkiaRC0WpIwdkPapk2r8dcAxvLhjdtu3PQ",
            "type": "text"
          }
        ],
        "url": {
          "raw": "http://localhost:8080/api/test/user",
          "protocol": "http",
          "host": [
            "localhost"
          ],
          "port": "8080",
          "path": [
            "api",
            "test",
            "user"
          ]
        },
        "description": "Access ROLE_USER resource"
      },
      "response": []
    },
    {
      "name": "Access ROLE_MODERATOR resource",
      "request": {
        "auth": {
          "type": "bearer",
          "bearer": [
            {
              "key": "token",
              "value": "eyJhbGciOiJIUzUxMiJ9.eyJzdWIiOiJuYXJ1dG8iLCJpYXQiOjE1ODc1MzA0ODgsImV4cCI6MTU4NzYxNjg4OH0.hog0tBi-xEXO7VrprqgzYcSg78U-96-HXyhOde4EGMyoNsQDG6JdQl3fLPwwJfn7rwlh6b3N2v-Qm73irtiG9Q",
              "type": "string"
            }
          ]
        },
        "method": "GET",
        "header": [],
        "url": {
          "raw": "http://localhost:8080/api/test/mod",
          "protocol": "http",
          "host": [
            "localhost"
          ],
          "port": "8080",
          "path": [
            "api",
            "test",
            "mod"
          ]
        },
        "description": "Access ROLE_MODERATOR resource"
      },
      "response": []
    },
    {
      "name": "Access ROLE_ADMIN resource",
      "request": {
        "auth": {
          "type": "bearer",
          "bearer": [
            {
              "key": "token",
              "value": "eyJhbGciOiJIUzUxMiJ9.eyJzdWIiOiJrYWthc2hpIiwiaWF0IjoxNTg3NTMwOTM5LCJleHAiOjE1ODc2MTczMzl9.U7cihNxIdFatQ8A-_RqocWrSqr-cBPNCjHnbFHidkd1lFNM5Y5rLXWuz2JNVJOj1yF7Oej_XIoGZYj1G5nPwEQ",
              "type": "string"
            }
          ]
        },
        "method": "GET",
        "header": [],
        "url": {
          "raw": "http://localhost:8080/api/test/admin",
          "protocol": "http",
          "host": [
            "localhost"
          ],
          "port": "8080",
          "path": [
            "api",
            "test",
            "admin"
          ]
        },
        "description": "Access ROLE_ADMIN resource"
      },
      "response": []
    }
  ],
  "protocolProfileBehavior": {}
}